simulation/qsim/DATA_PATH.msim.vcd
$comment
	File created using the following command:
		vcd file DATA_PATH.msim.vcd -direction
$end
$date
	Fri Nov 17 14:56:43 2023
$end
$version
	ModelSim Version 10.5b
$end
$timescale
	1ps
$end

$scope module counter_32_vhd_vec_tst $end
$var wire 1 ! CLK $end
$var wire 1 " EN $end
$var wire 1 # numero [4] $end
$var wire 1 $ numero [3] $end
$var wire 1 % numero [2] $end
$var wire 1 & numero [1] $end
$var wire 1 ' numero [0] $end
$var wire 1 ( RST $end

$scope module i1 $end
$var wire 1 ) gnd $end
$var wire 1 * vcc $end
$var wire 1 + unknown $end
$var wire 1 , devoe $end
$var wire 1 - devclrn $end
$var wire 1 . devpor $end
$var wire 1 / ww_devoe $end
$var wire 1 0 ww_devclrn $end
$var wire 1 1 ww_devpor $end
$var wire 1 2 ww_CLK $end
$var wire 1 3 ww_EN $end
$var wire 1 4 ww_RST $end
$var wire 1 5 ww_numero [4] $end
$var wire 1 6 ww_numero [3] $end
$var wire 1 7 ww_numero [2] $end
$var wire 1 8 ww_numero [1] $end
$var wire 1 9 ww_numero [0] $end
$var wire 1 : \RST~inputclkctrl_INCLK_bus\ [3] $end
$var wire 1 ; \RST~inputclkctrl_INCLK_bus\ [2] $end
$var wire 1 < \RST~inputclkctrl_INCLK_bus\ [1] $end
$var wire 1 = \RST~inputclkctrl_INCLK_bus\ [0] $end
$var wire 1 > \CLK~inputclkctrl_INCLK_bus\ [3] $end
$var wire 1 ? \CLK~inputclkctrl_INCLK_bus\ [2] $end
$var wire 1 @ \CLK~inputclkctrl_INCLK_bus\ [1] $end
$var wire 1 A \CLK~inputclkctrl_INCLK_bus\ [0] $end
$var wire 1 B \numero[0]~output_o\ $end
$var wire 1 C \numero[1]~output_o\ $end
$var wire 1 D \numero[2]~output_o\ $end
$var wire 1 E \numero[3]~output_o\ $end
$var wire 1 F \numero[4]~output_o\ $end
$var wire 1 G \CLK~input_o\ $end
$var wire 1 H \CLK~inputclkctrl_outclk\ $end
$var wire 1 I \RST~input_o\ $end
$var wire 1 J \RST~inputclkctrl_outclk\ $end
$var wire 1 K \EN~input_o\ $end
$var wire 1 L \PS.S27~q\ $end
$var wire 1 M \PS.S28~feeder_combout\ $end
$var wire 1 N \PS.S28~q\ $end
$var wire 1 O \PS.S29~q\ $end
$var wire 1 P \PS.S30~q\ $end
$var wire 1 Q \PS.S31~feeder_combout\ $end
$var wire 1 R \PS.S31~q\ $end
$var wire 1 S \PS.S0~0_combout\ $end
$var wire 1 T \PS.S0~q\ $end
$var wire 1 U \PS.S1~0_combout\ $end
$var wire 1 V \PS.S1~q\ $end
$var wire 1 W \PS.S2~feeder_combout\ $end
$var wire 1 X \PS.S2~q\ $end
$var wire 1 Y \PS.S3~feeder_combout\ $end
$var wire 1 Z \PS.S3~q\ $end
$var wire 1 [ \PS.S4~feeder_combout\ $end
$var wire 1 \ \PS.S4~q\ $end
$var wire 1 ] \PS.S5~feeder_combout\ $end
$var wire 1 ^ \PS.S5~q\ $end
$var wire 1 _ \PS.S6~q\ $end
$var wire 1 ` \PS.S7~q\ $end
$var wire 1 a \PS.S8~feeder_combout\ $end
$var wire 1 b \PS.S8~q\ $end
$var wire 1 c \PS.S9~feeder_combout\ $end
$var wire 1 d \PS.S9~q\ $end
$var wire 1 e \PS.S10~q\ $end
$var wire 1 f \PS.S11~feeder_combout\ $end
$var wire 1 g \PS.S11~q\ $end
$var wire 1 h \PS.S12~feeder_combout\ $end
$var wire 1 i \PS.S12~q\ $end
$var wire 1 j \PS.S13~feeder_combout\ $end
$var wire 1 k \PS.S13~q\ $end
$var wire 1 l \PS.S14~feeder_combout\ $end
$var wire 1 m \PS.S14~q\ $end
$var wire 1 n \PS.S15~feeder_combout\ $end
$var wire 1 o \PS.S15~q\ $end
$var wire 1 p \PS.S16~feeder_combout\ $end
$var wire 1 q \PS.S16~q\ $end
$var wire 1 r \PS.S17~feeder_combout\ $end
$var wire 1 s \PS.S17~q\ $end
$var wire 1 t \PS.S18~feeder_combout\ $end
$var wire 1 u \PS.S18~q\ $end
$var wire 1 v \PS.S19~feeder_combout\ $end
$var wire 1 w \PS.S19~q\ $end
$var wire 1 x \PS.S20~feeder_combout\ $end
$var wire 1 y \PS.S20~q\ $end
$var wire 1 z \PS.S21~feeder_combout\ $end
$var wire 1 { \PS.S21~q\ $end
$var wire 1 | \PS.S22~q\ $end
$var wire 1 } \PS.S23~q\ $end
$var wire 1 ~ \PS.S24~feeder_combout\ $end
$var wire 1 !! \PS.S24~q\ $end
$var wire 1 "! \PS.S25~q\ $end
$var wire 1 #! \PS.S26~feeder_combout\ $end
$var wire 1 $! \PS.S26~q\ $end
$var wire 1 %! \WideOr4~0_combout\ $end
$var wire 1 &! \WideOr1~0_combout\ $end
$var wire 1 '! \WideOr4~1_combout\ $end
$var wire 1 (! \WideOr0~0_combout\ $end
$var wire 1 )! \WideOr4~2_combout\ $end
$var wire 1 *! \WideOr2~0_combout\ $end
$var wire 1 +! \WideOr2~1_combout\ $end
$var wire 1 ,! \WideOr3~0_combout\ $end
$var wire 1 -! \WideOr3~1_combout\ $end
$var wire 1 .! \WideOr3~2_combout\ $end
$var wire 1 /! \WideOr2~3_combout\ $end
$var wire 1 0! \WideOr2~2_combout\ $end
$var wire 1 1! \WideOr2~4_combout\ $end
$var wire 1 2! \WideOr0~1_combout\ $end
$var wire 1 3! \WideOr1~1_combout\ $end
$var wire 1 4! \WideOr1~2_combout\ $end
$var wire 1 5! \WideOr0~2_combout\ $end
$var wire 1 6! \WideOr0~3_combout\ $end
$var wire 1 7! \ALT_INV_WideOr0~3_combout\ $end
$var wire 1 8! \ALT_INV_WideOr1~2_combout\ $end
$var wire 1 9! \ALT_INV_WideOr2~4_combout\ $end
$var wire 1 :! \ALT_INV_WideOr3~2_combout\ $end
$var wire 1 ;! \ALT_INV_WideOr4~2_combout\ $end
$upscope $end
$upscope $end
$enddefinitions $end
#0
$dumpvars
0!
1"
1(
0)
1*
x+
1,
1-
1.
1/
10
11
02
13
14
0B
0C
0D
0E
0F
0G
0H
1I
1J
1K
0L
0M
0N
0O
0P
0Q
0R
1S
0T
1U
0V
0W
0X
0Y
0Z
0[
0\
0]
0^
0_
0`
0a
0b
0c
0d
0e
0f
0g
0h
0i
0j
0k
0l
0m
0n
0o
0p
0q
0r
0s
0t
0u
0v
0w
0x
0y
0z
0{
0|
0}
0~
0!!
0"!
0#!
0$!
0%!
1&!
0'!
1(!
1)!
0*!
1+!
0,!
0-!
1.!
0/!
00!
11!
12!
03!
14!
05!
16!
07!
08!
09!
0:!
0;!
05
06
07
08
09
1>
1?
1@
0A
1:
1;
1<
1=
0#
0$
0%
0&
0'
$end
#5000
1!
12
1G
1A
1H
1T
1V
1W
02!
0U
1'!
0)!
1;!
1B
19
1'
#10000
0!
02
0G
0A
0H
#15000
1!
12
1G
1A
1H
0V
1X
1Y
0'!
10!
0W
1*!
12!
0.!
1)!
0;!
1:!
1C
0B
18
09
0'
1&
#20000
0!
02
0G
0A
0H
#25000
1!
12
1G
1A
1H
0X
1Z
1[
02!
0Y
1'!
0)!
1;!
1B
19
1'
#30000
0!
02
0G
0A
0H
#35000
1!
12
1G
1A
1H
0Z
1\
1]
0'!
1,!
0[
00!
12!
01!
1.!
1)!
0;!
0:!
19!
1D
0C
0B
17
08
09
0'
0&
1%
#40000
0!
02
0G
0A
0H
#45000
1!
12
1G
1A
1H
0\
1^
02!
0]
1'!
0)!
1;!
1B
19
1'
#50000
0!
02
0G
0A
0H
#55000
1!
12
1G
1A
1H
0^
1_
0'!
0,!
12!
0.!
1)!
0;!
1:!
1C
0B
18
09
0'
1&
#60000
0!
02
0G
0A
0H
#65000
1!
12
1G
1A
1H
0_
1`
1a
02!
1'!
0)!
1;!
1B
19
1'
#70000
0!
02
0G
0A
0H
#75000
1!
12
1G
1A
1H
0`
1b
1c
0(!
0*!
0a
12!
04!
1.!
11!
1)!
0;!
09!
0:!
18!
1E
0C
0D
0B
16
08
07
09
0'
0&
0%
1$
#80000
0!
02
0G
0A
0H
#85000
1!
12
1G
1A
1H
0b
1d
15!
0c
1(!
0)!
1;!
1B
19
1'
#90000
0!
02
0G
0A
0H
#95000
1!
12
1G
1A
1H
0d
1e
1f
0(!
10!
1*!
05!
0.!
1)!
0;!
1:!
1C
0B
18
09
0'
1&
#100000
0!
02
0G
0A
0H
#105000
1!
12
1G
1A
1H
0e
1g
1h
15!
0f
1(!
0)!
1;!
1B
19
1'
#110000
0!
02
0G
0A
0H
#115000
1!
12
1G
1A
1H
0g
1i
1j
0(!
1,!
0h
00!
05!
01!
1.!
1)!
0;!
0:!
19!
1D
0C
0B
17
08
09
0'
0&
1%
#120000
0!
02
0G
0A
0H
#125000
1!
12
1G
1A
1H
0i
1k
1l
15!
0j
1(!
0)!
1;!
1B
19
1'
#130000
0!
02
0G
0A
0H
#135000
1!
12
1G
1A
1H
0k
1m
1n
0(!
0l
0,!
05!
0.!
1)!
0;!
1:!
1C
0B
18
09
0'
1&
#140000
0!
02
0G
0A
0H
#145000
1!
12
1G
1A
1H
0m
1o
1p
15!
0n
1(!
0)!
1;!
1B
19
1'
#150000
0!
02
0G
0A
0H
#155000
1!
12
1G
1A
1H
0o
1q
1r
0&!
0+!
0p
05!
06!
1.!
11!
1)!
14!
08!
0;!
09!
0:!
17!
1F
0C
0D
0B
0E
15
08
07
09
06
0'
0&
0%
0$
1#
#160000
0!
02
0G
0A
0H
#165000
1!
12
1G
1A
1H
0q
1s
1t
13!
0r
1&!
0)!
1;!
1B
19
1'
#170000
0!
02
0G
0A
0H
#175000
1!
12
1G
1A
1H
0s
1u
1v
0&!
1/!
0t
1+!
03!
0.!
1)!
0;!
1:!
1C
0B
18
09
0'
1&
#180000
0!
02
0G
0A
0H
#185000
1!
12
1G
1A
1H
0u
1w
1x
13!
0v
1&!
0)!
1;!
1B
19
1'
#190000
0!
02
0G
0A
0H
#195000
1!
12
1G
1A
1H
0w
1y
1z
0&!
1-!
0x
0/!
03!
01!
1.!
1)!
0;!
0:!
19!
1D
0C
0B
17
08
09
0'
0&
1%
#200000
0!
02
0G
0A
0H
#205000
1!
12
1G
1A
1H
0y
1{
13!
0z
1&!
0)!
1;!
1B
19
1'
#210000
0!
02
0G
0A
0H
#215000
1!
12
1G
1A
1H
0{
1|
0&!
0-!
03!
0.!
1)!
0;!
1:!
1C
0B
18
09
0'
1&
#220000
0!
02
0G
0A
0H
#225000
1!
12
1G
1A
1H
0|
1}
1~
13!
1&!
0)!
1;!
1B
19
1'
#230000
0!
02
0G
0A
0H
#235000
1!
12
1G
1A
1H
0}
1!!
1%!
0+!
0~
03!
04!
1.!
11!
1)!
0;!
09!
0:!
18!
1E
0C
0D
0B
16
08
07
09
0'
0&
0%
1$
#240000
0!
02
0G
0A
0H
#245000
1!
12
1G
1A
1H
0!!
1"!
1#!
0%!
0)!
1;!
1B
19
1'
#250000
0!
02
0G
0A
0H
#255000
1!
12
1G
1A
1H
0"!
1$!
1%!
1/!
0#!
1+!
0.!
1)!
0;!
1:!
1C
0B
18
09
0'
1&
#260000
0!
02
0G
0A
0H
#265000
1!
12
1G
1A
1H
1L
0$!
0%!
1M
0)!
1;!
1B
19
1'
#270000
0!
02
0G
0A
0H
#275000
1!
12
1G
1A
1H
0L
1N
1%!
1-!
0M
0/!
01!
1.!
1)!
0;!
0:!
19!
1D
0C
0B
17
08
09
0'
0&
1%
#280000
0!
02
0G
0A
0H
#285000
1!
12
1G
1A
1H
0N
1O
0%!
0)!
1;!
1B
19
1'
#290000
0!
02
0G
0A
0H
#295000
1!
12
1G
1A
1H
0O
1P
1Q
1%!
0-!
0.!
1)!
0;!
1:!
1C
0B
18
09
0'
1&
#300000
0!
02
0G
0A
0H
#305000
1!
12
1G
1A
1H
0P
1R
0S
0Q
0%!
0)!
1;!
1B
19
1'
#310000
0!
02
0G
0A
0H
#315000
1!
12
1G
1A
1H
0R
0T
1U
0'!
0*!
1S
1.!
11!
1)!
14!
16!
07!
08!
0;!
09!
0:!
0C
0D
0B
0E
0F
08
07
09
06
05
0'
0&
0%
0$
0#
#320000
0!
02
0G
0A
0H
#325000
1!
12
1G
1A
1H
1T
1V
1W
02!
0U
1'!
0)!
1;!
1B
19
1'
#330000
0!
02
0G
0A
0H
#335000
1!
12
1G
1A
1H
0V
1X
1Y
0'!
10!
0W
1*!
12!
0.!
1)!
0;!
1:!
1C
0B
18
09
0'
1&
#340000
0!
02
0G
0A
0H
#345000
1!
12
1G
1A
1H
0X
1Z
1[
02!
0Y
1'!
0)!
1;!
1B
19
1'
#350000
0!
02
0G
0A
0H
#355000
1!
12
1G
1A
1H
0Z
1\
1]
0'!
1,!
0[
00!
12!
01!
1.!
1)!
0;!
0:!
19!
1D
0C
0B
17
08
09
0'
0&
1%
#360000
0!
02
0G
0A
0H
#365000
1!
12
1G
1A
1H
0\
1^
02!
0]
1'!
0)!
1;!
1B
19
1'
#370000
0!
02
0G
0A
0H
#375000
1!
12
1G
1A
1H
0^
1_
0'!
0,!
12!
0.!
1)!
0;!
1:!
1C
0B
18
09
0'
1&
#380000
0!
02
0G
0A
0H
#385000
1!
12
1G
1A
1H
0_
1`
1a
02!
1'!
0)!
1;!
1B
19
1'
#390000
0!
02
0G
0A
0H
#395000
1!
12
1G
1A
1H
0`
1b
1c
0(!
0*!
0a
12!
04!
1.!
11!
1)!
0;!
09!
0:!
18!
1E
0C
0D
0B
16
08
07
09
0'
0&
0%
1$
#400000
0!
02
0G
0A
0H
#405000
1!
12
1G
1A
1H
0b
1d
15!
0c
1(!
0)!
1;!
1B
19
1'
#410000
0!
02
0G
0A
0H
#415000
1!
12
1G
1A
1H
0d
1e
1f
0(!
10!
1*!
05!
0.!
1)!
0;!
1:!
1C
0B
18
09
0'
1&
#420000
0!
02
0G
0A
0H
#425000
1!
12
1G
1A
1H
0e
1g
1h
15!
0f
1(!
0)!
1;!
1B
19
1'
#430000
0!
02
0G
0A
0H
#435000
1!
12
1G
1A
1H
0g
1i
1j
0(!
1,!
0h
00!
05!
01!
1.!
1)!
0;!
0:!
19!
1D
0C
0B
17
08
09
0'
0&
1%
#440000
0!
02
0G
0A
0H
#445000
1!
12
1G
1A
1H
0i
1k
1l
15!
0j
1(!
0)!
1;!
1B
19
1'
#450000
0!
02
0G
0A
0H
#455000
1!
12
1G
1A
1H
0k
1m
1n
0(!
0l
0,!
05!
0.!
1)!
0;!
1:!
1C
0B
18
09
0'
1&
#460000
0!
02
0G
0A
0H
#465000
1!
12
1G
1A
1H
0m
1o
1p
15!
0n
1(!
0)!
1;!
1B
19
1'
#470000
0!
02
0G
0A
0H
#475000
1!
12
1G
1A
1H
0o
1q
1r
0&!
0+!
0p
05!
06!
1.!
11!
1)!
14!
08!
0;!
09!
0:!
17!
1F
0C
0D
0B
0E
15
08
07
09
06
0'
0&
0%
0$
1#
#480000
0!
02
0G
0A
0H
#485000
1!
12
1G
1A
1H
0q
1s
1t
13!
0r
1&!
0)!
1;!
1B
19
1'
#490000
0!
02
0G
0A
0H
#495000
1!
12
1G
1A
1H
0s
1u
1v
0&!
1/!
0t
1+!
03!
0.!
1)!
0;!
1:!
1C
0B
18
09
0'
1&
#500000
0!
02
0G
0A
0H
#505000
1!
12
1G
1A
1H
0u
1w
1x
13!
0v
1&!
0)!
1;!
1B
19
1'
#510000
0!
02
0G
0A
0H
#515000
1!
12
1G
1A
1H
0w
1y
1z
0&!
1-!
0x
0/!
03!
01!
1.!
1)!
0;!
0:!
19!
1D
0C
0B
17
08
09
0'
0&
1%
#520000
0!
02
0G
0A
0H
#525000
1!
12
1G
1A
1H
0y
1{
13!
0z
1&!
0)!
1;!
1B
19
1'
#530000
0!
02
0G
0A
0H
#535000
1!
12
1G
1A
1H
0{
1|
0&!
0-!
03!
0.!
1)!
0;!
1:!
1C
0B
18
09
0'
1&
#540000
0!
02
0G
0A
0H
#545000
1!
12
1G
1A
1H
0|
1}
1~
13!
1&!
0)!
1;!
1B
19
1'
#550000
0!
02
0G
0A
0H
#555000
1!
12
1G
1A
1H
0}
1!!
1%!
0+!
0~
03!
04!
1.!
11!
1)!
0;!
09!
0:!
18!
1E
0C
0D
0B
16
08
07
09
0'
0&
0%
1$
#560000
0!
02
0G
0A
0H
#565000
1!
12
1G
1A
1H
0!!
1"!
1#!
0%!
0)!
1;!
1B
19
1'
#570000
0!
02
0G
0A
0H
#575000
1!
12
1G
1A
1H
0"!
1$!
1%!
1/!
0#!
1+!
0.!
1)!
0;!
1:!
1C
0B
18
09
0'
1&
#580000
0!
02
0G
0A
0H
#585000
1!
12
1G
1A
1H
1L
0$!
0%!
1M
0)!
1;!
1B
19
1'
#590000
0!
02
0G
0A
0H
#595000
1!
12
1G
1A
1H
0L
1N
1%!
1-!
0M
0/!
01!
1.!
1)!
0;!
0:!
19!
1D
0C
0B
17
08
09
0'
0&
1%
#600000
0!
02
0G
0A
0H
#605000
1!
12
1G
1A
1H
0N
1O
0%!
0)!
1;!
1B
19
1'
#610000
0!
02
0G
0A
0H
#615000
1!
12
1G
1A
1H
0O
1P
1Q
1%!
0-!
0.!
1)!
0;!
1:!
1C
0B
18
09
0'
1&
#620000
0!
02
0G
0A
0H
#625000
1!
12
1G
1A
1H
0P
1R
0S
0Q
0%!
0)!
1;!
1B
19
1'
#630000
0!
02
0G
0A
0H
#635000
1!
12
1G
1A
1H
0R
0T
1U
0'!
0*!
1S
1.!
11!
1)!
14!
16!
07!
08!
0;!
09!
0:!
0C
0D
0B
0E
0F
08
07
09
06
05
0'
0&
0%
0$
0#
#640000
0!
02
0G
0A
0H
#645000
1!
12
1G
1A
1H
1T
1V
1W
02!
0U
1'!
0)!
1;!
1B
19
1'
#650000
0!
02
0G
0A
0H
#655000
1!
12
1G
1A
1H
0V
1X
1Y
0'!
10!
0W
1*!
12!
0.!
1)!
0;!
1:!
1C
0B
18
09
0'
1&
#660000
0!
02
0G
0A
0H
#665000
1!
12
1G
1A
1H
0X
1Z
1[
02!
0Y
1'!
0)!
1;!
1B
19
1'
#670000
0!
02
0G
0A
0H
#675000
1!
12
1G
1A
1H
0Z
1\
1]
0'!
1,!
0[
00!
12!
01!
1.!
1)!
0;!
0:!
19!
1D
0C
0B
17
08
09
0'
0&
1%
#680000
0!
02
0G
0A
0H
#685000
1!
12
1G
1A
1H
0\
1^
02!
0]
1'!
0)!
1;!
1B
19
1'
#690000
0!
02
0G
0A
0H
#695000
1!
12
1G
1A
1H
0^
1_
0'!
0,!
12!
0.!
1)!
0;!
1:!
1C
0B
18
09
0'
1&
#700000
0!
02
0G
0A
0H
#705000
1!
12
1G
1A
1H
0_
1`
1a
02!
1'!
0)!
1;!
1B
19
1'
#710000
0!
02
0G
0A
0H
#715000
1!
12
1G
1A
1H
0`
1b
1c
0(!
0*!
0a
12!
04!
1.!
11!
1)!
0;!
09!
0:!
18!
1E
0C
0D
0B
16
08
07
09
0'
0&
0%
1$
#720000
0!
02
0G
0A
0H
#725000
1!
12
1G
1A
1H
0b
1d
15!
0c
1(!
0)!
1;!
1B
19
1'
#730000
0!
02
0G
0A
0H
#735000
1!
12
1G
1A
1H
0d
1e
1f
0(!
10!
1*!
05!
0.!
1)!
0;!
1:!
1C
0B
18
09
0'
1&
#740000
0!
02
0G
0A
0H
#745000
1!
12
1G
1A
1H
0e
1g
1h
15!
0f
1(!
0)!
1;!
1B
19
1'
#750000
0!
02
0G
0A
0H
#755000
1!
12
1G
1A
1H
0g
1i
1j
0(!
1,!
0h
00!
05!
01!
1.!
1)!
0;!
0:!
19!
1D
0C
0B
17
08
09
0'
0&
1%
#760000
0!
02
0G
0A
0H
#765000
1!
12
1G
1A
1H
0i
1k
1l
15!
0j
1(!
0)!
1;!
1B
19
1'
#770000
0!
02
0G
0A
0H
#775000
1!
12
1G
1A
1H
0k
1m
1n
0(!
0l
0,!
05!
0.!
1)!
0;!
1:!
1C
0B
18
09
0'
1&
#780000
0!
02
0G
0A
0H
#785000
1!
12
1G
1A
1H
0m
1o
1p
15!
0n
1(!
0)!
1;!
1B
19
1'
#790000
0!
02
0G
0A
0H
#795000
1!
12
1G
1A
1H
0o
1q
1r
0&!
0+!
0p
05!
06!
1.!
11!
1)!
14!
08!
0;!
09!
0:!
17!
1F
0C
0D
0B
0E
15
08
07
09
06
0'
0&
0%
0$
1#
#800000
0!
02
0G
0A
0H
#805000
1!
12
1G
1A
1H
0q
1s
1t
13!
0r
1&!
0)!
1;!
1B
19
1'
#810000
0!
02
0G
0A
0H
#815000
1!
12
1G
1A
1H
0s
1u
1v
0&!
1/!
0t
1+!
03!
0.!
1)!
0;!
1:!
1C
0B
18
09
0'
1&
#820000
0!
02
0G
0A
0H
#825000
1!
12
1G
1A
1H
0u
1w
1x
13!
0v
1&!
0)!
1;!
1B
19
1'
#830000
0!
02
0G
0A
0H
#835000
1!
12
1G
1A
1H
0w
1y
1z
0&!
1-!
0x
0/!
03!
01!
1.!
1)!
0;!
0:!
19!
1D
0C
0B
17
08
09
0'
0&
1%
#840000
0!
02
0G
0A
0H
#845000
1!
12
1G
1A
1H
0y
1{
13!
0z
1&!
0)!
1;!
1B
19
1'
#850000
0!
02
0G
0A
0H
#855000
1!
12
1G
1A
1H
0{
1|
0&!
0-!
03!
0.!
1)!
0;!
1:!
1C
0B
18
09
0'
1&
#860000
0!
02
0G
0A
0H
#865000
1!
12
1G
1A
1H
0|
1}
1~
13!
1&!
0)!
1;!
1B
19
1'
#870000
0!
02
0G
0A
0H
#875000
1!
12
1G
1A
1H
0}
1!!
1%!
0+!
0~
03!
04!
1.!
11!
1)!
0;!
09!
0:!
18!
1E
0C
0D
0B
16
08
07
09
0'
0&
0%
1$
#880000
0!
02
0G
0A
0H
#885000
1!
12
1G
1A
1H
0!!
1"!
1#!
0%!
0)!
1;!
1B
19
1'
#890000
0!
02
0G
0A
0H
#895000
1!
12
1G
1A
1H
0"!
1$!
1%!
1/!
0#!
1+!
0.!
1)!
0;!
1:!
1C
0B
18
09
0'
1&
#900000
0!
02
0G
0A
0H
#905000
1!
12
1G
1A
1H
1L
0$!
0%!
1M
0)!
1;!
1B
19
1'
#910000
0!
02
0G
0A
0H
#915000
1!
12
1G
1A
1H
0L
1N
1%!
1-!
0M
0/!
01!
1.!
1)!
0;!
0:!
19!
1D
0C
0B
17
08
09
0'
0&
1%
#920000
0!
02
0G
0A
0H
#925000
1!
12
1G
1A
1H
0N
1O
0%!
0)!
1;!
1B
19
1'
#930000
0!
02
0G
0A
0H
#935000
1!
12
1G
1A
1H
0O
1P
1Q
1%!
0-!
0.!
1)!
0;!
1:!
1C
0B
18
09
0'
1&
#940000
0!
02
0G
0A
0H
#945000
1!
12
1G
1A
1H
0P
1R
0S
0Q
0%!
0)!
1;!
1B
19
1'
#950000
0!
02
0G
0A
0H
#955000
1!
12
1G
1A
1H
0R
0T
1U
0'!
0*!
1S
1.!
11!
1)!
14!
16!
07!
08!
0;!
09!
0:!
0C
0D
0B
0E
0F
08
07
09
06
05
0'
0&
0%
0$
0#
#960000
0!
02
0G
0A
0H
#965000
1!
12
1G
1A
1H
1T
1V
1W
02!
0U
1'!
0)!
1;!
1B
19
1'
#970000
0!
02
0G
0A
0H
#975000
1!
12
1G
1A
1H
0V
1X
1Y
0'!
10!
0W
1*!
12!
0.!
1)!
0;!
1:!
1C
0B
18
09
0'
1&
#980000
0!
02
0G
0A
0H
#985000
1!
12
1G
1A
1H
0X
1Z
1[
02!
0Y
1'!
0)!
1;!
1B
19
1'
#990000
0!
02
0G
0A
0H
#995000
1!
12
1G
1A
1H
0Z
1\
1]
0'!
1,!
0[
00!
12!
01!
1.!
1)!
0;!
0:!
19!
1D
0C
0B
17
08
09
0'
0&
1%
