simulation/qsim/DATA_PATH.msim.vcd
$comment
	File created using the following command:
		vcd file DATA_PATH.msim.vcd -direction
$end
$date
	Tue Nov 21 11:37:52 2023
$end
$version
	ModelSim Version 10.5b
$end
$timescale
	1ps
$end

$scope module control_path_vhd_vec_tst $end
$var wire 1 ! CLK $end
$var wire 1 " EN $end
$var wire 1 # igual $end
$var wire 1 $ RST $end

$scope module i1 $end
$var wire 1 % gnd $end
$var wire 1 & vcc $end
$var wire 1 ' unknown $end
$var wire 1 ( devoe $end
$var wire 1 ) devclrn $end
$var wire 1 * devpor $end
$var wire 1 + ww_devoe $end
$var wire 1 , ww_devclrn $end
$var wire 1 - ww_devpor $end
$var wire 1 . ww_CLK $end
$var wire 1 / ww_EN $end
$var wire 1 0 ww_RST $end
$var wire 1 1 ww_igual $end
$var wire 1 2 \RST~inputclkctrl_INCLK_bus\ [3] $end
$var wire 1 3 \RST~inputclkctrl_INCLK_bus\ [2] $end
$var wire 1 4 \RST~inputclkctrl_INCLK_bus\ [1] $end
$var wire 1 5 \RST~inputclkctrl_INCLK_bus\ [0] $end
$var wire 1 6 \CLK~inputclkctrl_INCLK_bus\ [3] $end
$var wire 1 7 \CLK~inputclkctrl_INCLK_bus\ [2] $end
$var wire 1 8 \CLK~inputclkctrl_INCLK_bus\ [1] $end
$var wire 1 9 \CLK~inputclkctrl_INCLK_bus\ [0] $end
$var wire 1 : \igual~output_o\ $end
$var wire 1 ; \CLK~input_o\ $end
$var wire 1 < \CLK~inputclkctrl_outclk\ $end
$var wire 1 = \contar_comparar|counter|PS.S0~0_combout\ $end
$var wire 1 > \RST~input_o\ $end
$var wire 1 ? \RST~inputclkctrl_outclk\ $end
$var wire 1 @ \EN~input_o\ $end
$var wire 1 A \contar_comparar|counter|PS.S0~q\ $end
$var wire 1 B \contar_comparar|counter|PS.S1~0_combout\ $end
$var wire 1 C \contar_comparar|counter|PS.S1~q\ $end
$var wire 1 D \contar_comparar|counter|PS.S2~feeder_combout\ $end
$var wire 1 E \contar_comparar|counter|PS.S2~q\ $end
$var wire 1 F \contar_comparar|counter|PS.S3~feeder_combout\ $end
$var wire 1 G \contar_comparar|counter|PS.S3~q\ $end
$var wire 1 H \contar_comparar|counter|PS.S4~feeder_combout\ $end
$var wire 1 I \contar_comparar|counter|PS.S4~q\ $end
$var wire 1 J \contar_comparar|counter|PS.S5~feeder_combout\ $end
$var wire 1 K \contar_comparar|counter|PS.S5~q\ $end
$var wire 1 L \contar_comparar|counter|PS.S6~feeder_combout\ $end
$var wire 1 M \contar_comparar|counter|PS.S6~q\ $end
$var wire 1 N \contar_comparar|counter|PS.S7~feeder_combout\ $end
$var wire 1 O \contar_comparar|counter|PS.S7~q\ $end
$var wire 1 P \contar_comparar|counter|PS.S8~feeder_combout\ $end
$var wire 1 Q \contar_comparar|counter|PS.S8~q\ $end
$var wire 1 R \contar_comparar|counter|PS.S9~feeder_combout\ $end
$var wire 1 S \contar_comparar|counter|PS.S9~q\ $end
$var wire 1 T \contar_comparar|counter|PS.S10~feeder_combout\ $end
$var wire 1 U \contar_comparar|counter|PS.S10~q\ $end
$var wire 1 V \contar_comparar|counter|PS.S11~feeder_combout\ $end
$var wire 1 W \contar_comparar|counter|PS.S11~q\ $end
$var wire 1 X \contar_comparar|counter|PS.S12~feeder_combout\ $end
$var wire 1 Y \contar_comparar|counter|PS.S12~q\ $end
$var wire 1 Z \contar_comparar|counter|PS.S13~feeder_combout\ $end
$var wire 1 [ \contar_comparar|counter|PS.S13~q\ $end
$var wire 1 \ \contar_comparar|counter|PS.S14~feeder_combout\ $end
$var wire 1 ] \contar_comparar|counter|PS.S14~q\ $end
$var wire 1 ^ \contar_comparar|counter|PS.S15~feeder_combout\ $end
$var wire 1 _ \contar_comparar|counter|PS.S15~q\ $end
$var wire 1 ` \contar_comparar|counter|PS.S16~feeder_combout\ $end
$var wire 1 a \contar_comparar|counter|PS.S16~q\ $end
$var wire 1 b \contar_comparar|counter|PS.S17~feeder_combout\ $end
$var wire 1 c \contar_comparar|counter|PS.S17~q\ $end
$var wire 1 d \contar_comparar|counter|PS.S18~feeder_combout\ $end
$var wire 1 e \contar_comparar|counter|PS.S18~q\ $end
$var wire 1 f \contar_comparar|counter|PS.S19~feeder_combout\ $end
$var wire 1 g \contar_comparar|counter|PS.S19~q\ $end
$var wire 1 h \contar_comparar|counter|PS.S20~feeder_combout\ $end
$var wire 1 i \contar_comparar|counter|PS.S20~q\ $end
$var wire 1 j \contar_comparar|counter|PS.S21~feeder_combout\ $end
$var wire 1 k \contar_comparar|counter|PS.S21~q\ $end
$var wire 1 l \contar_comparar|counter|PS.S22~feeder_combout\ $end
$var wire 1 m \contar_comparar|counter|PS.S22~q\ $end
$var wire 1 n \contar_comparar|counter|PS.S23~feeder_combout\ $end
$var wire 1 o \contar_comparar|counter|PS.S23~q\ $end
$var wire 1 p \contar_comparar|counter|PS.S24~feeder_combout\ $end
$var wire 1 q \contar_comparar|counter|PS.S24~q\ $end
$var wire 1 r \contar_comparar|counter|PS.S25~feeder_combout\ $end
$var wire 1 s \contar_comparar|counter|PS.S25~q\ $end
$var wire 1 t \contar_comparar|counter|PS.S26~feeder_combout\ $end
$var wire 1 u \contar_comparar|counter|PS.S26~q\ $end
$var wire 1 v \contar_comparar|counter|PS.S27~feeder_combout\ $end
$var wire 1 w \contar_comparar|counter|PS.S27~q\ $end
$var wire 1 x \contar_comparar|counter|PS.S28~feeder_combout\ $end
$var wire 1 y \contar_comparar|counter|PS.S28~q\ $end
$var wire 1 z \contar_comparar|counter|PS.S29~feeder_combout\ $end
$var wire 1 { \contar_comparar|counter|PS.S29~q\ $end
$var wire 1 | \contar_comparar|counter|PS.S30~feeder_combout\ $end
$var wire 1 } \contar_comparar|counter|PS.S30~q\ $end
$var wire 1 ~ \contar_comparar|counter|PS.S31~feeder_combout\ $end
$var wire 1 !! \contar_comparar|counter|PS.S31~q\ $end
$upscope $end
$upscope $end
$enddefinitions $end
#0
$dumpvars
0!
1"
0#
1$
0%
1&
x'
1(
1)
1*
1+
1,
1-
0.
1/
10
01
0:
0;
0<
1=
1>
1?
1@
0A
1B
0C
0D
0E
0F
0G
0H
0I
0J
0K
0L
0M
0N
0O
0P
0Q
0R
0S
0T
0U
0V
0W
0X
0Y
0Z
0[
0\
0]
0^
0_
0`
0a
0b
0c
0d
0e
0f
0g
0h
0i
0j
0k
0l
0m
0n
0o
0p
0q
0r
0s
0t
0u
0v
0w
0x
0y
0z
0{
0|
0}
0~
0!!
16
17
18
09
12
13
14
15
$end
#2500
1!
1.
1;
19
1<
1A
1C
1D
0B
#5000
0!
0.
0;
09
0<
#7500
1!
1.
1;
19
1<
0C
1E
1F
0D
#10000
0!
0.
0;
09
0<
#12500
1!
1.
1;
19
1<
0E
1G
1H
0F
#15000
0!
0.
0;
09
0<
#17500
1!
1.
1;
19
1<
0G
1I
1J
0H
#20000
0!
0.
0;
09
0<
#22500
1!
1.
1;
19
1<
0I
1K
1L
0J
#25000
0!
0.
0;
09
0<
#27500
1!
1.
1;
19
1<
0K
1M
1N
0L
#30000
0!
0.
0;
09
0<
#32500
1!
1.
1;
19
1<
0M
1O
1P
0N
#35000
0!
0.
0;
09
0<
#37500
1!
1.
1;
19
1<
0O
1Q
1R
0P
#40000
0!
0.
0;
09
0<
#42500
1!
1.
1;
19
1<
0Q
1S
1T
0R
#45000
0!
0.
0;
09
0<
#47500
1!
1.
1;
19
1<
0S
1U
1V
0T
#50000
0!
0.
0;
09
0<
#52500
1!
1.
1;
19
1<
0U
1W
1X
0V
#55000
0!
0.
0;
09
0<
#57500
1!
1.
1;
19
1<
0W
1Y
1Z
0X
#60000
0!
0.
0;
09
0<
#62500
1!
1.
1;
19
1<
0Y
1[
1\
0Z
#65000
0!
0.
0;
09
0<
#67500
1!
1.
1;
19
1<
0[
1]
1^
0\
#70000
0!
0.
0;
09
0<
#72500
1!
1.
1;
19
1<
0]
1_
1`
0^
#75000
0!
0.
0;
09
0<
#77500
1!
1.
1;
19
1<
0_
1a
1b
0`
#80000
0!
0.
0;
09
0<
#82500
1!
1.
1;
19
1<
0a
1c
1d
0b
#85000
0!
0.
0;
09
0<
#87500
1!
1.
1;
19
1<
0c
1e
1f
0d
#90000
0!
0.
0;
09
0<
#92500
1!
1.
1;
19
1<
0e
1g
1h
0f
#95000
0!
0.
0;
09
0<
#97500
1!
1.
1;
19
1<
0g
1i
1j
0h
#100000
0!
0.
0;
09
0<
#102500
1!
1.
1;
19
1<
0i
1k
1l
0j
#105000
0!
0.
0;
09
0<
#107500
1!
1.
1;
19
1<
0k
1m
1n
0l
#110000
0!
0.
0;
09
0<
#112500
1!
1.
1;
19
1<
0m
1o
1p
0n
#115000
0!
0.
0;
09
0<
#117500
1!
1.
1;
19
1<
0o
1q
1r
0p
#120000
0!
0.
0;
09
0<
#122500
1!
1.
1;
19
1<
0q
1s
1t
0r
#125000
0!
0.
0;
09
0<
#127500
1!
1.
1;
19
1<
0s
1u
1v
0t
#130000
0!
0.
0;
09
0<
#132500
1!
1.
1;
19
1<
0u
1w
1x
0v
#135000
0!
0.
0;
09
0<
#137500
1!
1.
1;
19
1<
0w
1y
1z
0x
#140000
0!
0.
0;
09
0<
#142500
1!
1.
1;
19
1<
0y
1{
1|
0z
#145000
0!
0.
0;
09
0<
#147500
1!
1.
1;
19
1<
0{
1}
1~
0|
#150000
0!
0.
0;
09
0<
#152500
1!
1.
1;
19
1<
0}
1!!
0=
0~
1:
11
1#
#155000
0!
0.
0;
09
0<
#157500
1!
1.
1;
19
1<
0A
0!!
1=
1B
0:
01
0#
#160000
0!
0.
0;
09
0<
#162500
1!
1.
1;
19
1<
1A
1C
1D
0B
#165000
0!
0.
0;
09
0<
#167500
1!
1.
1;
19
1<
0C
1E
1F
0D
#170000
0!
0.
0;
09
0<
#172500
1!
1.
1;
19
1<
0E
1G
1H
0F
#175000
0!
0.
0;
09
0<
#177500
1!
1.
1;
19
1<
0G
1I
1J
0H
#180000
0!
0.
0;
09
0<
#182500
1!
1.
1;
19
1<
0I
1K
1L
0J
#185000
0!
0.
0;
09
0<
#187500
1!
1.
1;
19
1<
0K
1M
1N
0L
#190000
0!
0.
0;
09
0<
#192500
1!
1.
1;
19
1<
0M
1O
1P
0N
#195000
0!
0.
0;
09
0<
#197500
1!
1.
1;
19
1<
0O
1Q
1R
0P
#200000
0!
0.
0;
09
0<
#202500
1!
1.
1;
19
1<
0Q
1S
1T
0R
#205000
0!
0.
0;
09
0<
#207500
1!
1.
1;
19
1<
0S
1U
1V
0T
#210000
0!
0.
0;
09
0<
#212500
1!
1.
1;
19
1<
0U
1W
1X
0V
#215000
0!
0.
0;
09
0<
#217500
1!
1.
1;
19
1<
0W
1Y
1Z
0X
#220000
0!
0.
0;
09
0<
#222500
1!
1.
1;
19
1<
0Y
1[
1\
0Z
#225000
0!
0.
0;
09
0<
#227500
1!
1.
1;
19
1<
0[
1]
1^
0\
#230000
0!
0.
0;
09
0<
#232500
1!
1.
1;
19
1<
0]
1_
1`
0^
#235000
0!
0.
0;
09
0<
#237500
1!
1.
1;
19
1<
0_
1a
1b
0`
#240000
0!
0.
0;
09
0<
#242500
1!
1.
1;
19
1<
0a
1c
1d
0b
#245000
0!
0.
0;
09
0<
#247500
1!
1.
1;
19
1<
0c
1e
1f
0d
#250000
0!
0.
0;
09
0<
#252500
1!
1.
1;
19
1<
0e
1g
1h
0f
#255000
0!
0.
0;
09
0<
#257500
1!
1.
1;
19
1<
0g
1i
1j
0h
#260000
0!
0.
0;
09
0<
#262500
1!
1.
1;
19
1<
0i
1k
1l
0j
#265000
0!
0.
0;
09
0<
#267500
1!
1.
1;
19
1<
0k
1m
1n
0l
#270000
0!
0.
0;
09
0<
#272500
1!
1.
1;
19
1<
0m
1o
1p
0n
#275000
0!
0.
0;
09
0<
#277500
1!
1.
1;
19
1<
0o
1q
1r
0p
#280000
0!
0.
0;
09
0<
#282500
1!
1.
1;
19
1<
0q
1s
1t
0r
#285000
0!
0.
0;
09
0<
#287500
1!
1.
1;
19
1<
0s
1u
1v
0t
#290000
0!
0.
0;
09
0<
#292500
1!
1.
1;
19
1<
0u
1w
1x
0v
#295000
0!
0.
0;
09
0<
#297500
1!
1.
1;
19
1<
0w
1y
1z
0x
#300000
0!
0.
0;
09
0<
#302500
1!
1.
1;
19
1<
0y
1{
1|
0z
#305000
0!
0.
0;
09
0<
#307500
1!
1.
1;
19
1<
0{
1}
1~
0|
#310000
0!
0.
0;
09
0<
#312500
1!
1.
1;
19
1<
0}
1!!
0=
0~
1:
11
1#
#315000
0!
0.
0;
09
0<
#317500
1!
1.
1;
19
1<
0A
0!!
1=
1B
0:
01
0#
#320000
0!
0.
0;
09
0<
#322500
1!
1.
1;
19
1<
1A
1C
1D
0B
#325000
0!
0.
0;
09
0<
#327500
1!
1.
1;
19
1<
0C
1E
1F
0D
#330000
0!
0.
0;
09
0<
#332500
1!
1.
1;
19
1<
0E
1G
1H
0F
#335000
0!
0.
0;
09
0<
#337500
1!
1.
1;
19
1<
0G
1I
1J
0H
#340000
0!
0.
0;
09
0<
#342500
1!
1.
1;
19
1<
0I
1K
1L
0J
#345000
0!
0.
0;
09
0<
#347500
1!
1.
1;
19
1<
0K
1M
1N
0L
#350000
0!
0.
0;
09
0<
#352500
1!
1.
1;
19
1<
0M
1O
1P
0N
#355000
0!
0.
0;
09
0<
#357500
1!
1.
1;
19
1<
0O
1Q
1R
0P
#360000
0!
0.
0;
09
0<
#362500
1!
1.
1;
19
1<
0Q
1S
1T
0R
#365000
0!
0.
0;
09
0<
#367500
1!
1.
1;
19
1<
0S
1U
1V
0T
#370000
0!
0.
0;
09
0<
#372500
1!
1.
1;
19
1<
0U
1W
1X
0V
#375000
0!
0.
0;
09
0<
#377500
1!
1.
1;
19
1<
0W
1Y
1Z
0X
#380000
0!
0.
0;
09
0<
#382500
1!
1.
1;
19
1<
0Y
1[
1\
0Z
#385000
0!
0.
0;
09
0<
#387500
1!
1.
1;
19
1<
0[
1]
1^
0\
#390000
0!
0.
0;
09
0<
#392500
1!
1.
1;
19
1<
0]
1_
1`
0^
#395000
0!
0.
0;
09
0<
#397500
1!
1.
1;
19
1<
0_
1a
1b
0`
#400000
0!
0.
0;
09
0<
#402500
1!
1.
1;
19
1<
0a
1c
1d
0b
#405000
0!
0.
0;
09
0<
#407500
1!
1.
1;
19
1<
0c
1e
1f
0d
#410000
0!
0.
0;
09
0<
#412500
1!
1.
1;
19
1<
0e
1g
1h
0f
#415000
0!
0.
0;
09
0<
#417500
1!
1.
1;
19
1<
0g
1i
1j
0h
#420000
0!
0.
0;
09
0<
#422500
1!
1.
1;
19
1<
0i
1k
1l
0j
#425000
0!
0.
0;
09
0<
#427500
1!
1.
1;
19
1<
0k
1m
1n
0l
#430000
0!
0.
0;
09
0<
#432500
1!
1.
1;
19
1<
0m
1o
1p
0n
#435000
0!
0.
0;
09
0<
#437500
1!
1.
1;
19
1<
0o
1q
1r
0p
#440000
0!
0.
0;
09
0<
#442500
1!
1.
1;
19
1<
0q
1s
1t
0r
#445000
0!
0.
0;
09
0<
#447500
1!
1.
1;
19
1<
0s
1u
1v
0t
#450000
0!
0.
0;
09
0<
#452500
1!
1.
1;
19
1<
0u
1w
1x
0v
#455000
0!
0.
0;
09
0<
#457500
1!
1.
1;
19
1<
0w
1y
1z
0x
#460000
0!
0.
0;
09
0<
#462500
1!
1.
1;
19
1<
0y
1{
1|
0z
#465000
0!
0.
0;
09
0<
#467500
1!
1.
1;
19
1<
0{
1}
1~
0|
#470000
0!
0.
0;
09
0<
#472500
1!
1.
1;
19
1<
0}
1!!
0=
0~
1:
11
1#
#475000
0!
0.
0;
09
0<
#477500
1!
1.
1;
19
1<
0A
0!!
1=
1B
0:
01
0#
#480000
0!
0.
0;
09
0<
#482500
1!
1.
1;
19
1<
1A
1C
1D
0B
#485000
0!
0.
0;
09
0<
#487500
1!
1.
1;
19
1<
0C
1E
1F
0D
#490000
0!
0.
0;
09
0<
#492500
1!
1.
1;
19
1<
0E
1G
1H
0F
#495000
0!
0.
0;
09
0<
#497500
1!
1.
1;
19
1<
0G
1I
1J
0H
#500000
0!
0.
0;
09
0<
#502500
1!
1.
1;
19
1<
0I
1K
1L
0J
#505000
0!
0.
0;
09
0<
#507500
1!
1.
1;
19
1<
0K
1M
1N
0L
#510000
0!
0.
0;
09
0<
#512500
1!
1.
1;
19
1<
0M
1O
1P
0N
#515000
0!
0.
0;
09
0<
#517500
1!
1.
1;
19
1<
0O
1Q
1R
0P
#520000
0!
0.
0;
09
0<
#522500
1!
1.
1;
19
1<
0Q
1S
1T
0R
#525000
0!
0.
0;
09
0<
#527500
1!
1.
1;
19
1<
0S
1U
1V
0T
#530000
0!
0.
0;
09
0<
#532500
1!
1.
1;
19
1<
0U
1W
1X
0V
#535000
0!
0.
0;
09
0<
#537500
1!
1.
1;
19
1<
0W
1Y
1Z
0X
#540000
0!
0.
0;
09
0<
#542500
1!
1.
1;
19
1<
0Y
1[
1\
0Z
#545000
0!
0.
0;
09
0<
#547500
1!
1.
1;
19
1<
0[
1]
1^
0\
#550000
0!
0.
0;
09
0<
#552500
1!
1.
1;
19
1<
0]
1_
1`
0^
#555000
0!
0.
0;
09
0<
#557500
1!
1.
1;
19
1<
0_
1a
1b
0`
#560000
0!
0.
0;
09
0<
#562500
1!
1.
1;
19
1<
0a
1c
1d
0b
#565000
0!
0.
0;
09
0<
#567500
1!
1.
1;
19
1<
0c
1e
1f
0d
#570000
0!
0.
0;
09
0<
#572500
1!
1.
1;
19
1<
0e
1g
1h
0f
#575000
0!
0.
0;
09
0<
#577500
1!
1.
1;
19
1<
0g
1i
1j
0h
#580000
0!
0.
0;
09
0<
#582500
1!
1.
1;
19
1<
0i
1k
1l
0j
#585000
0!
0.
0;
09
0<
#587500
1!
1.
1;
19
1<
0k
1m
1n
0l
#590000
0!
0.
0;
09
0<
#592500
1!
1.
1;
19
1<
0m
1o
1p
0n
#595000
0!
0.
0;
09
0<
#597500
1!
1.
1;
19
1<
0o
1q
1r
0p
#600000
0!
0.
0;
09
0<
#602500
1!
1.
1;
19
1<
0q
1s
1t
0r
#605000
0!
0.
0;
09
0<
#607500
1!
1.
1;
19
1<
0s
1u
1v
0t
#610000
0!
0.
0;
09
0<
#612500
1!
1.
1;
19
1<
0u
1w
1x
0v
#615000
0!
0.
0;
09
0<
#617500
1!
1.
1;
19
1<
0w
1y
1z
0x
#620000
0!
0.
0;
09
0<
#622500
1!
1.
1;
19
1<
0y
1{
1|
0z
#625000
0!
0.
0;
09
0<
#627500
1!
1.
1;
19
1<
0{
1}
1~
0|
#630000
0!
0.
0;
09
0<
#632500
1!
1.
1;
19
1<
0}
1!!
0=
0~
1:
11
1#
#635000
0!
0.
0;
09
0<
#637500
1!
1.
1;
19
1<
0A
0!!
1=
1B
0:
01
0#
#640000
0!
0.
0;
09
0<
#642500
1!
1.
1;
19
1<
1A
1C
1D
0B
#645000
0!
0.
0;
09
0<
#647500
1!
1.
1;
19
1<
0C
1E
1F
0D
#650000
0!
0.
0;
09
0<
#652500
1!
1.
1;
19
1<
0E
1G
1H
0F
#655000
0!
0.
0;
09
0<
#657500
1!
1.
1;
19
1<
0G
1I
1J
0H
#660000
0!
0.
0;
09
0<
#662500
1!
1.
1;
19
1<
0I
1K
1L
0J
#665000
0!
0.
0;
09
0<
#667500
1!
1.
1;
19
1<
0K
1M
1N
0L
#670000
0!
0.
0;
09
0<
#672500
1!
1.
1;
19
1<
0M
1O
1P
0N
#675000
0!
0.
0;
09
0<
#677500
1!
1.
1;
19
1<
0O
1Q
1R
0P
#680000
0!
0.
0;
09
0<
#682500
1!
1.
1;
19
1<
0Q
1S
1T
0R
#685000
0!
0.
0;
09
0<
#687500
1!
1.
1;
19
1<
0S
1U
1V
0T
#690000
0!
0.
0;
09
0<
#692500
1!
1.
1;
19
1<
0U
1W
1X
0V
#695000
0!
0.
0;
09
0<
#697500
1!
1.
1;
19
1<
0W
1Y
1Z
0X
#700000
0!
0.
0;
09
0<
#702500
1!
1.
1;
19
1<
0Y
1[
1\
0Z
#705000
0!
0.
0;
09
0<
#707500
1!
1.
1;
19
1<
0[
1]
1^
0\
#710000
0!
0.
0;
09
0<
#712500
1!
1.
1;
19
1<
0]
1_
1`
0^
#715000
0!
0.
0;
09
0<
#717500
1!
1.
1;
19
1<
0_
1a
1b
0`
#720000
0!
0.
0;
09
0<
#722500
1!
1.
1;
19
1<
0a
1c
1d
0b
#725000
0!
0.
0;
09
0<
#727500
1!
1.
1;
19
1<
0c
1e
1f
0d
#730000
0!
0.
0;
09
0<
#732500
1!
1.
1;
19
1<
0e
1g
1h
0f
#735000
0!
0.
0;
09
0<
#737500
1!
1.
1;
19
1<
0g
1i
1j
0h
#740000
0!
0.
0;
09
0<
#742500
1!
1.
1;
19
1<
0i
1k
1l
0j
#745000
0!
0.
0;
09
0<
#747500
1!
1.
1;
19
1<
0k
1m
1n
0l
#750000
0!
0.
0;
09
0<
#752500
1!
1.
1;
19
1<
0m
1o
1p
0n
#755000
0!
0.
0;
09
0<
#757500
1!
1.
1;
19
1<
0o
1q
1r
0p
#760000
0!
0.
0;
09
0<
#762500
1!
1.
1;
19
1<
0q
1s
1t
0r
#765000
0!
0.
0;
09
0<
#767500
1!
1.
1;
19
1<
0s
1u
1v
0t
#770000
0!
0.
0;
09
0<
#772500
1!
1.
1;
19
1<
0u
1w
1x
0v
#775000
0!
0.
0;
09
0<
#777500
1!
1.
1;
19
1<
0w
1y
1z
0x
#780000
0!
0.
0;
09
0<
#782500
1!
1.
1;
19
1<
0y
1{
1|
0z
#785000
0!
0.
0;
09
0<
#787500
1!
1.
1;
19
1<
0{
1}
1~
0|
#790000
0!
0.
0;
09
0<
#792500
1!
1.
1;
19
1<
0}
1!!
0=
0~
1:
11
1#
#795000
0!
0.
0;
09
0<
#797500
1!
1.
1;
19
1<
0A
0!!
1=
1B
0:
01
0#
#800000
0!
0.
0;
09
0<
#802500
1!
1.
1;
19
1<
1A
1C
1D
0B
#805000
0!
0.
0;
09
0<
#807500
1!
1.
1;
19
1<
0C
1E
1F
0D
#810000
0!
0.
0;
09
0<
#812500
1!
1.
1;
19
1<
0E
1G
1H
0F
#815000
0!
0.
0;
09
0<
#817500
1!
1.
1;
19
1<
0G
1I
1J
0H
#820000
0!
0.
0;
09
0<
#822500
1!
1.
1;
19
1<
0I
1K
1L
0J
#825000
0!
0.
0;
09
0<
#827500
1!
1.
1;
19
1<
0K
1M
1N
0L
#830000
0!
0.
0;
09
0<
#832500
1!
1.
1;
19
1<
0M
1O
1P
0N
#835000
0!
0.
0;
09
0<
#837500
1!
1.
1;
19
1<
0O
1Q
1R
0P
#840000
0!
0.
0;
09
0<
#842500
1!
1.
1;
19
1<
0Q
1S
1T
0R
#845000
0!
0.
0;
09
0<
#847500
1!
1.
1;
19
1<
0S
1U
1V
0T
#850000
0!
0.
0;
09
0<
#852500
1!
1.
1;
19
1<
0U
1W
1X
0V
#855000
0!
0.
0;
09
0<
#857500
1!
1.
1;
19
1<
0W
1Y
1Z
0X
#860000
0!
0.
0;
09
0<
#862500
1!
1.
1;
19
1<
0Y
1[
1\
0Z
#865000
0!
0.
0;
09
0<
#867500
1!
1.
1;
19
1<
0[
1]
1^
0\
#870000
0!
0.
0;
09
0<
#872500
1!
1.
1;
19
1<
0]
1_
1`
0^
#875000
0!
0.
0;
09
0<
#877500
1!
1.
1;
19
1<
0_
1a
1b
0`
#880000
0!
0.
0;
09
0<
#882500
1!
1.
1;
19
1<
0a
1c
1d
0b
#885000
0!
0.
0;
09
0<
#887500
1!
1.
1;
19
1<
0c
1e
1f
0d
#890000
0!
0.
0;
09
0<
#892500
1!
1.
1;
19
1<
0e
1g
1h
0f
#895000
0!
0.
0;
09
0<
#897500
1!
1.
1;
19
1<
0g
1i
1j
0h
#900000
0!
0.
0;
09
0<
#902500
1!
1.
1;
19
1<
0i
1k
1l
0j
#905000
0!
0.
0;
09
0<
#907500
1!
1.
1;
19
1<
0k
1m
1n
0l
#910000
0!
0.
0;
09
0<
#912500
1!
1.
1;
19
1<
0m
1o
1p
0n
#915000
0!
0.
0;
09
0<
#917500
1!
1.
1;
19
1<
0o
1q
1r
0p
#920000
0!
0.
0;
09
0<
#922500
1!
1.
1;
19
1<
0q
1s
1t
0r
#925000
0!
0.
0;
09
0<
#927500
1!
1.
1;
19
1<
0s
1u
1v
0t
#930000
0!
0.
0;
09
0<
#932500
1!
1.
1;
19
1<
0u
1w
1x
0v
#935000
0!
0.
0;
09
0<
#937500
1!
1.
1;
19
1<
0w
1y
1z
0x
#940000
0!
0.
0;
09
0<
#942500
1!
1.
1;
19
1<
0y
1{
1|
0z
#945000
0!
0.
0;
09
0<
#947500
1!
1.
1;
19
1<
0{
1}
1~
0|
#950000
0!
0.
0;
09
0<
#952500
1!
1.
1;
19
1<
0}
1!!
0=
0~
1:
11
1#
#955000
0!
0.
0;
09
0<
#957500
1!
1.
1;
19
1<
0A
0!!
1=
1B
0:
01
0#
#960000
0!
0.
0;
09
0<
#962500
1!
1.
1;
19
1<
1A
1C
1D
0B
#965000
0!
0.
0;
09
0<
#967500
1!
1.
1;
19
1<
0C
1E
1F
0D
#970000
0!
0.
0;
09
0<
#972500
1!
1.
1;
19
1<
0E
1G
1H
0F
#975000
0!
0.
0;
09
0<
#977500
1!
1.
1;
19
1<
0G
1I
1J
0H
#980000
0!
0.
0;
09
0<
#982500
1!
1.
1;
19
1<
0I
1K
1L
0J
#985000
0!
0.
0;
09
0<
#987500
1!
1.
1;
19
1<
0K
1M
1N
0L
#990000
0!
0.
0;
09
0<
#992500
1!
1.
1;
19
1<
0M
1O
1P
0N
#995000
0!
0.
0;
09
0<
#997500
1!
1.
1;
19
1<
0O
1Q
1R
0P
